\relax 
\providecommand\hyper@newdestlabel[2]{}
\providecommand\HyperFirstAtBeginDocument{\AtBeginDocument}
\HyperFirstAtBeginDocument{\ifx\hyper@anchor\@undefined
\global\let\oldcontentsline\contentsline
\gdef\contentsline#1#2#3#4{\oldcontentsline{#1}{#2}{#3}}
\global\let\oldnewlabel\newlabel
\gdef\newlabel#1#2{\newlabelxx{#1}#2}
\gdef\newlabelxx#1#2#3#4#5#6{\oldnewlabel{#1}{{#2}{#3}}}
\AtEndDocument{\ifx\hyper@anchor\@undefined
\let\contentsline\oldcontentsline
\let\newlabel\oldnewlabel
\fi}
\fi}
\global\let\hyper@last\relax 
\gdef\HyperFirstAtBeginDocument#1{#1}
\providecommand\HyField@AuxAddToFields[1]{}
\providecommand\HyField@AuxAddToCoFields[2]{}
\select@language{english}
\@writefile{toc}{\select@language{english}}
\@writefile{lof}{\select@language{english}}
\@writefile{lot}{\select@language{english}}
\newlabel{index::doc}{{}{1}{}{section*.2}{}}
\newlabel{index:contents}{{}{1}{}{section*.3}{}}
\@writefile{toc}{\contentsline {chapter}{\numberline {1}Contents:}{3}{chapter.1}}
\@writefile{lof}{\addvspace {10\p@ }}
\@writefile{lot}{\addvspace {10\p@ }}
\newlabel{index:stellar-structure-and-evolution-lab}{{1}{3}{Contents:}{chapter.1}{}}
\newlabel{index:id1}{{1}{3}{Contents:}{chapter.1}{}}
\@writefile{toc}{\contentsline {section}{\numberline {1.1}Exercise 01: Mean Molecular Weight}{3}{section.1.1}}
\newlabel{exercise01/exercise01:exercise-01-mean-molecular-weight}{{1.1}{3}{Exercise 01: Mean Molecular Weight}{section.1.1}{}}
\newlabel{exercise01/exercise01::doc}{{1.1}{3}{Exercise 01: Mean Molecular Weight}{section.1.1}{}}
\newlabel{exercise01/exercise01:exercise01}{{1.1}{3}{Exercise 01: Mean Molecular Weight}{section.1.1}{}}
\@writefile{toc}{\contentsline {subsection}{\numberline {1.1.1}Introduction}{3}{subsection.1.1.1}}
\newlabel{exercise01/exercise01:introduction}{{1.1.1}{3}{Introduction}{subsection.1.1.1}{}}
\newlabel{exercise01/exercise01:id1}{{1.1.1}{3}{Introduction}{subsection.1.1.1}{}}
\newlabel{exercise01/exercise01:equation-e1}{{1.1.1}{3}{Introduction}{section*.4}{}}
\newlabel{exercise01/exercise01-e1}{{1.1}{3}{Introduction}{equation.1.1.1}{}}
\newlabel{exercise01/exercise01:equation-e2}{{1.1.1}{3}{Introduction}{section*.5}{}}
\newlabel{exercise01/exercise01-e2}{{1.2}{3}{Introduction}{equation.1.1.2}{}}
\@writefile{toc}{\contentsline {subsection}{\numberline {1.1.2}Instructions}{3}{subsection.1.1.2}}
\newlabel{exercise01/exercise01:id2}{{1.1.2}{3}{Instructions}{subsection.1.1.2}{}}
\newlabel{exercise01/exercise01:instructions}{{1.1.2}{3}{Instructions}{subsection.1.1.2}{}}
\@writefile{toc}{\contentsline {subsection}{\numberline {1.1.3}Visualization}{4}{subsection.1.1.3}}
\newlabel{exercise01/exercise01:visualization}{{1.1.3}{4}{Visualization}{subsection.1.1.3}{}}
\newlabel{exercise01/exercise01:id3}{{1.1.3}{4}{Visualization}{subsection.1.1.3}{}}
\@writefile{toc}{\contentsline {subsection}{\numberline {1.1.4}Task}{4}{subsection.1.1.4}}
\newlabel{exercise01/exercise01:id4}{{1.1.4}{4}{Task}{subsection.1.1.4}{}}
\newlabel{exercise01/exercise01:task}{{1.1.4}{4}{Task}{subsection.1.1.4}{}}
\newlabel{exercise01/exercise01:equation-e3}{{3}{4}{Task}{section*.6}{}}
\newlabel{exercise01/exercise01-e3}{{1.3}{4}{Task}{equation.1.1.3}{}}
\@writefile{toc}{\contentsline {section}{\numberline {1.2}Exercise 02: Specific Heat Capacities in Stars}{5}{section.1.2}}
\newlabel{exercise02/exercise02:exercise-02-specific-heat-capacities-in-stars}{{1.2}{5}{Exercise 02: Specific Heat Capacities in Stars}{section.1.2}{}}
\newlabel{exercise02/exercise02::doc}{{1.2}{5}{Exercise 02: Specific Heat Capacities in Stars}{section.1.2}{}}
\newlabel{exercise02/exercise02:exercise02}{{1.2}{5}{Exercise 02: Specific Heat Capacities in Stars}{section.1.2}{}}
\@writefile{toc}{\contentsline {subsection}{\numberline {1.2.1}Introduction}{5}{subsection.1.2.1}}
\newlabel{exercise02/exercise02:introduction}{{1.2.1}{5}{Introduction}{subsection.1.2.1}{}}
\newlabel{exercise02/exercise02:id1}{{1.2.1}{5}{Introduction}{subsection.1.2.1}{}}
\newlabel{exercise02/exercise02:equation-e01}{{1.2.1}{5}{Introduction}{section*.7}{}}
\newlabel{exercise02/exercise02-e01}{{1.4}{5}{Introduction}{equation.1.2.4}{}}
\newlabel{exercise02/exercise02:equation-e02}{{1.2.1}{5}{Introduction}{section*.8}{}}
\newlabel{exercise02/exercise02-e02}{{1.5}{5}{Introduction}{equation.1.2.5}{}}
\newlabel{exercise02/exercise02:equation-e03}{{1.2.1}{5}{Introduction}{section*.9}{}}
\newlabel{exercise02/exercise02-e03}{{1.6}{5}{Introduction}{equation.1.2.6}{}}
\newlabel{exercise02/exercise02:equation-e04}{{1.2.1}{5}{Introduction}{section*.10}{}}
\newlabel{exercise02/exercise02-e04}{{1.7}{5}{Introduction}{equation.1.2.7}{}}
\newlabel{exercise02/exercise02:equation-e05}{{1.2.1}{5}{Introduction}{section*.11}{}}
\newlabel{exercise02/exercise02-e05}{{1.8}{5}{Introduction}{equation.1.2.8}{}}
\@writefile{toc}{\contentsline {subsection}{\numberline {1.2.2}Instructions}{5}{subsection.1.2.2}}
\newlabel{exercise02/exercise02:id2}{{1.2.2}{5}{Instructions}{subsection.1.2.2}{}}
\newlabel{exercise02/exercise02:instructions}{{1.2.2}{5}{Instructions}{subsection.1.2.2}{}}
\@writefile{toc}{\contentsline {subsection}{\numberline {1.2.3}Task}{6}{subsection.1.2.3}}
\newlabel{exercise02/exercise02:task}{{1.2.3}{6}{Task}{subsection.1.2.3}{}}
\newlabel{exercise02/exercise02:id3}{{1.2.3}{6}{Task}{subsection.1.2.3}{}}
\newlabel{exercise02/exercise02:equation-Delta}{{1}{6}{Task}{section*.12}{}}
\newlabel{exercise02/exercise02-Delta}{{1.9}{6}{Task}{equation.1.2.9}{}}
\newlabel{exercise02/exercise02:equation-R_mu}{{2}{7}{Task}{section*.13}{}}
\newlabel{exercise02/exercise02-R_mu}{{1.10}{7}{Task}{equation.1.2.10}{}}
\@writefile{toc}{\contentsline {section}{\numberline {1.3}Exercise03: Stars as Mixture of Gas and Photons}{7}{section.1.3}}
\newlabel{exercise03/exercise03:exercise03-stars-as-mixture-of-gas-and-photons}{{1.3}{7}{Exercise03: Stars as Mixture of Gas and Photons}{section.1.3}{}}
\newlabel{exercise03/exercise03::doc}{{1.3}{7}{Exercise03: Stars as Mixture of Gas and Photons}{section.1.3}{}}
\newlabel{exercise03/exercise03:exercise03}{{1.3}{7}{Exercise03: Stars as Mixture of Gas and Photons}{section.1.3}{}}
\@writefile{toc}{\contentsline {subsection}{\numberline {1.3.1}Introduction}{7}{subsection.1.3.1}}
\newlabel{exercise03/exercise03:introduction}{{1.3.1}{7}{Introduction}{subsection.1.3.1}{}}
\newlabel{exercise03/exercise03:id1}{{1.3.1}{7}{Introduction}{subsection.1.3.1}{}}
\newlabel{exercise03/exercise03:equation-p01}{{1.3.1}{7}{Introduction}{section*.14}{}}
\newlabel{exercise03/exercise03-p01}{{1.11}{7}{Introduction}{equation.1.3.11}{}}
\newlabel{exercise03/exercise03:equation-p02}{{1.3.1}{7}{Introduction}{section*.15}{}}
\newlabel{exercise03/exercise03-p02}{{1.12}{7}{Introduction}{equation.1.3.12}{}}
\@writefile{toc}{\contentsline {subsection}{\numberline {1.3.2}Instructions}{7}{subsection.1.3.2}}
\newlabel{exercise03/exercise03:id2}{{1.3.2}{7}{Instructions}{subsection.1.3.2}{}}
\newlabel{exercise03/exercise03:instructions}{{1.3.2}{7}{Instructions}{subsection.1.3.2}{}}
\@writefile{toc}{\contentsline {subsection}{\numberline {1.3.3}Task}{8}{subsection.1.3.3}}
\newlabel{exercise03/exercise03:task}{{1.3.3}{8}{Task}{subsection.1.3.3}{}}
\newlabel{exercise03/exercise03:id3}{{1.3.3}{8}{Task}{subsection.1.3.3}{}}
\@writefile{toc}{\contentsline {section}{\numberline {1.4}Exercise04: Continuity Equation}{8}{section.1.4}}
\newlabel{exercise04/exercise04:exercise04}{{1.4}{8}{Exercise04: Continuity Equation}{section.1.4}{}}
\newlabel{exercise04/exercise04::doc}{{1.4}{8}{Exercise04: Continuity Equation}{section.1.4}{}}
\newlabel{exercise04/exercise04:exercise04-continuity-equation}{{1.4}{8}{Exercise04: Continuity Equation}{section.1.4}{}}
\@writefile{toc}{\contentsline {subsection}{\numberline {1.4.1}Introduction}{8}{subsection.1.4.1}}
\newlabel{exercise04/exercise04:introduction}{{1.4.1}{8}{Introduction}{subsection.1.4.1}{}}
\newlabel{exercise04/exercise04:id1}{{1.4.1}{8}{Introduction}{subsection.1.4.1}{}}
\newlabel{exercise04/exercise04:equation-c1}{{1.4.1}{8}{Introduction}{section*.16}{}}
\newlabel{exercise04/exercise04-c1}{{1.13}{8}{Introduction}{equation.1.4.13}{}}
\newlabel{exercise04/exercise04:equation-c3}{{1.4.1}{8}{Introduction}{section*.17}{}}
\newlabel{exercise04/exercise04-c3}{{1.14}{8}{Introduction}{equation.1.4.14}{}}
\@writefile{toc}{\contentsline {subsection}{\numberline {1.4.2}Intensive versus Extensive Variables in MESA}{8}{subsection.1.4.2}}
\newlabel{exercise04/exercise04:intensive-extensive-variables}{{1.4.2}{8}{Intensive versus Extensive Variables in MESA}{subsection.1.4.2}{}}
\newlabel{exercise04/exercise04:intensive-versus-extensive-variables-in-mesa}{{1.4.2}{8}{Intensive versus Extensive Variables in MESA}{subsection.1.4.2}{}}
\@writefile{toc}{\contentsline {subsection}{\numberline {1.4.3}Transfering Intensive Quantities to the Cell Boundary}{9}{subsection.1.4.3}}
\newlabel{exercise04/exercise04:cell-center-to-cell-edge}{{1.4.3}{9}{Transfering Intensive Quantities to the Cell Boundary}{subsection.1.4.3}{}}
\newlabel{exercise04/exercise04:transfering-intensive-quantities-to-the-cell-boundary}{{1.4.3}{9}{Transfering Intensive Quantities to the Cell Boundary}{subsection.1.4.3}{}}
\newlabel{exercise04/exercise04:equation-c2}{{1.4.3}{9}{Transfering Intensive Quantities to the Cell Boundary}{section*.18}{}}
\newlabel{exercise04/exercise04-c2}{{1.15}{9}{Transfering Intensive Quantities to the Cell Boundary}{equation.1.4.15}{}}
\@writefile{toc}{\contentsline {subsection}{\numberline {1.4.4}Task}{9}{subsection.1.4.4}}
\newlabel{exercise04/exercise04:id4}{{1.4.4}{9}{Task}{subsection.1.4.4}{}}
\newlabel{exercise04/exercise04:task}{{1.4.4}{9}{Task}{subsection.1.4.4}{}}
\@writefile{toc}{\contentsline {section}{\numberline {1.5}Exercise05: Hydrostatic Balance}{10}{section.1.5}}
\newlabel{exercise05/exercise05:exercise05}{{1.5}{10}{Exercise05: Hydrostatic Balance}{section.1.5}{}}
\newlabel{exercise05/exercise05::doc}{{1.5}{10}{Exercise05: Hydrostatic Balance}{section.1.5}{}}
\newlabel{exercise05/exercise05:exercise05-hydrostatic-balance}{{1.5}{10}{Exercise05: Hydrostatic Balance}{section.1.5}{}}
\@writefile{toc}{\contentsline {subsection}{\numberline {1.5.1}Introduction}{10}{subsection.1.5.1}}
\newlabel{exercise05/exercise05:introduction}{{1.5.1}{10}{Introduction}{subsection.1.5.1}{}}
\newlabel{exercise05/exercise05:id1}{{1.5.1}{10}{Introduction}{subsection.1.5.1}{}}
\newlabel{exercise05/exercise05:equation-eq1}{{1.5.1}{10}{Introduction}{section*.19}{}}
\newlabel{exercise05/exercise05-eq1}{{1.16}{10}{Introduction}{equation.1.5.16}{}}
\@writefile{toc}{\contentsline {subsection}{\numberline {1.5.2}Task}{11}{subsection.1.5.2}}
\newlabel{exercise05/exercise05:task}{{1.5.2}{11}{Task}{subsection.1.5.2}{}}
\newlabel{exercise05/exercise05:id2}{{1.5.2}{11}{Task}{subsection.1.5.2}{}}
\@writefile{toc}{\contentsline {section}{\numberline {1.6}Exercise 06: Numerical Differentiation with MESA}{12}{section.1.6}}
\newlabel{exercise06/exercise06:exercise06}{{1.6}{12}{Exercise 06: Numerical Differentiation with MESA}{section.1.6}{}}
\newlabel{exercise06/exercise06:exercise-06-numerical-differentiation-with-mesa}{{1.6}{12}{Exercise 06: Numerical Differentiation with MESA}{section.1.6}{}}
\newlabel{exercise06/exercise06::doc}{{1.6}{12}{Exercise 06: Numerical Differentiation with MESA}{section.1.6}{}}
\@writefile{toc}{\contentsline {subsection}{\numberline {1.6.1}Introduction}{12}{subsection.1.6.1}}
\newlabel{exercise06/exercise06:introduction}{{1.6.1}{12}{Introduction}{subsection.1.6.1}{}}
\newlabel{exercise06/exercise06:id1}{{1.6.1}{12}{Introduction}{subsection.1.6.1}{}}
\@writefile{toc}{\contentsline {subsection}{\numberline {1.6.2}Instructions}{12}{subsection.1.6.2}}
\newlabel{exercise06/exercise06:id2}{{1.6.2}{12}{Instructions}{subsection.1.6.2}{}}
\newlabel{exercise06/exercise06:instructions}{{1.6.2}{12}{Instructions}{subsection.1.6.2}{}}
\@writefile{toc}{\contentsline {subsection}{\numberline {1.6.3}Task}{12}{subsection.1.6.3}}
\newlabel{exercise06/exercise06:task}{{1.6.3}{12}{Task}{subsection.1.6.3}{}}
\newlabel{exercise06/exercise06:id3}{{1.6.3}{12}{Task}{subsection.1.6.3}{}}
\@writefile{toc}{\contentsline {section}{\numberline {1.7}Exercise 07: Simple Stellar Models with Polytropes}{14}{section.1.7}}
\newlabel{exercise07/exercise07:exercise-07-simple-stellar-models-with-polytropes}{{1.7}{14}{Exercise 07: Simple Stellar Models with Polytropes}{section.1.7}{}}
\newlabel{exercise07/exercise07:exercise07}{{1.7}{14}{Exercise 07: Simple Stellar Models with Polytropes}{section.1.7}{}}
\newlabel{exercise07/exercise07::doc}{{1.7}{14}{Exercise 07: Simple Stellar Models with Polytropes}{section.1.7}{}}
\@writefile{toc}{\contentsline {subsection}{\numberline {1.7.1}Introduction}{14}{subsection.1.7.1}}
\newlabel{exercise07/exercise07:introduction}{{1.7.1}{14}{Introduction}{subsection.1.7.1}{}}
\newlabel{exercise07/exercise07:id1}{{1.7.1}{14}{Introduction}{subsection.1.7.1}{}}
\newlabel{exercise07/exercise07:equation-p1}{{1.7.1}{14}{Introduction}{section*.20}{}}
\newlabel{exercise07/exercise07-p1}{{1.17}{14}{Introduction}{equation.1.7.17}{}}
\newlabel{exercise07/exercise07:equation-p2}{{1.7.1}{14}{Introduction}{section*.21}{}}
\newlabel{exercise07/exercise07-p2}{{1.18}{14}{Introduction}{equation.1.7.18}{}}
\newlabel{exercise07/exercise07:equation-p3}{{1.7.1}{14}{Introduction}{section*.22}{}}
\newlabel{exercise07/exercise07-p3}{{1.19}{14}{Introduction}{equation.1.7.19}{}}
\newlabel{exercise07/exercise07:equation-p4}{{1.7.1}{14}{Introduction}{section*.23}{}}
\newlabel{exercise07/exercise07-p4}{{1.20}{14}{Introduction}{equation.1.7.20}{}}
\@writefile{toc}{\contentsline {subsection}{\numberline {1.7.2}Instructions}{14}{subsection.1.7.2}}
\newlabel{exercise07/exercise07:id2}{{1.7.2}{14}{Instructions}{subsection.1.7.2}{}}
\newlabel{exercise07/exercise07:instructions}{{1.7.2}{14}{Instructions}{subsection.1.7.2}{}}
\@writefile{toc}{\contentsline {subsection}{\numberline {1.7.3}Task}{15}{subsection.1.7.3}}
\newlabel{exercise07/exercise07:task}{{1.7.3}{15}{Task}{subsection.1.7.3}{}}
\newlabel{exercise07/exercise07:id3}{{1.7.3}{15}{Task}{subsection.1.7.3}{}}
\@writefile{toc}{\contentsline {section}{\numberline {1.8}Exercise 08: Degenerate Electrons in Stellar Interiors}{16}{section.1.8}}
\newlabel{exercise08/exercise08:exercise08}{{1.8}{16}{Exercise 08: Degenerate Electrons in Stellar Interiors}{section.1.8}{}}
\newlabel{exercise08/exercise08:exercise-08-degenerate-electrons-in-stellar-interiors}{{1.8}{16}{Exercise 08: Degenerate Electrons in Stellar Interiors}{section.1.8}{}}
\newlabel{exercise08/exercise08::doc}{{1.8}{16}{Exercise 08: Degenerate Electrons in Stellar Interiors}{section.1.8}{}}
\@writefile{toc}{\contentsline {subsection}{\numberline {1.8.1}Introduction}{16}{subsection.1.8.1}}
\newlabel{exercise08/exercise08:introduction}{{1.8.1}{16}{Introduction}{subsection.1.8.1}{}}
\newlabel{exercise08/exercise08:id1}{{1.8.1}{16}{Introduction}{subsection.1.8.1}{}}
\newlabel{exercise08/exercise08:equation-e1}{{1.8.1}{16}{Introduction}{section*.24}{}}
\newlabel{exercise08/exercise08-e1}{{1.21}{16}{Introduction}{equation.1.8.21}{}}
\newlabel{exercise08/exercise08:equation-e2}{{1.8.1}{16}{Introduction}{section*.25}{}}
\newlabel{exercise08/exercise08-e2}{{1.22}{16}{Introduction}{equation.1.8.22}{}}
\newlabel{exercise08/exercise08:equation-e3}{{1.8.1}{16}{Introduction}{section*.26}{}}
\newlabel{exercise08/exercise08-e3}{{1.23}{16}{Introduction}{equation.1.8.23}{}}
\newlabel{exercise08/exercise08:equation-e4}{{1.8.1}{16}{Introduction}{section*.27}{}}
\newlabel{exercise08/exercise08-e4}{{1.24}{16}{Introduction}{equation.1.8.24}{}}
\newlabel{exercise08/exercise08:equation-e5}{{1.8.1}{16}{Introduction}{section*.28}{}}
\newlabel{exercise08/exercise08-e5}{{1.25}{16}{Introduction}{equation.1.8.25}{}}
\newlabel{exercise08/exercise08:equation-e6}{{1.8.1}{16}{Introduction}{section*.29}{}}
\newlabel{exercise08/exercise08-e6}{{1.26}{16}{Introduction}{equation.1.8.26}{}}
\newlabel{exercise08/exercise08:equation-e7}{{1.8.1}{16}{Introduction}{section*.30}{}}
\newlabel{exercise08/exercise08-e7}{{1.27}{16}{Introduction}{equation.1.8.27}{}}
\@writefile{toc}{\contentsline {subsection}{\numberline {1.8.2}Instruction}{17}{subsection.1.8.2}}
\newlabel{exercise08/exercise08:instruction}{{1.8.2}{17}{Instruction}{subsection.1.8.2}{}}
\newlabel{exercise08/exercise08:instructions}{{1.8.2}{17}{Instruction}{subsection.1.8.2}{}}
\@writefile{toc}{\contentsline {subsection}{\numberline {1.8.3}Task}{18}{subsection.1.8.3}}
\newlabel{exercise08/exercise08:task}{{1.8.3}{18}{Task}{subsection.1.8.3}{}}
\newlabel{exercise08/exercise08:id2}{{1.8.3}{18}{Task}{subsection.1.8.3}{}}
\@writefile{toc}{\contentsline {section}{\numberline {1.9}Exercise 09: Distinguishing Radiative versus Convective Layers}{18}{section.1.9}}
\newlabel{exercise09/exercise09::doc}{{1.9}{18}{Exercise 09: Distinguishing Radiative versus Convective Layers}{section.1.9}{}}
\newlabel{exercise09/exercise09:exercise09}{{1.9}{18}{Exercise 09: Distinguishing Radiative versus Convective Layers}{section.1.9}{}}
\newlabel{exercise09/exercise09:exercise-09-distinguishing-radiative-versus-convective-layers}{{1.9}{18}{Exercise 09: Distinguishing Radiative versus Convective Layers}{section.1.9}{}}
\@writefile{toc}{\contentsline {subsection}{\numberline {1.9.1}Introduction}{18}{subsection.1.9.1}}
\newlabel{exercise09/exercise09:introduction}{{1.9.1}{18}{Introduction}{subsection.1.9.1}{}}
\newlabel{exercise09/exercise09:id1}{{1.9.1}{18}{Introduction}{subsection.1.9.1}{}}
\@writefile{toc}{\contentsline {subsection}{\numberline {1.9.2}Mixing Length Theory of Convection}{19}{subsection.1.9.2}}
\newlabel{exercise09/exercise09:mixing-length-theory-of-convection}{{1.9.2}{19}{Mixing Length Theory of Convection}{subsection.1.9.2}{}}
\newlabel{exercise09/exercise09:mlt}{{1.9.2}{19}{Mixing Length Theory of Convection}{subsection.1.9.2}{}}
\newlabel{exercise09/exercise09:equation-def_nablas}{{1.9.2}{19}{Mixing Length Theory of Convection}{section*.31}{}}
\newlabel{exercise09/exercise09-def_nablas}{{1.28}{19}{Mixing Length Theory of Convection}{equation.1.9.28}{}}
\newlabel{exercise09/exercise09:equation-Sch}{{1.9.2}{19}{Mixing Length Theory of Convection}{section*.32}{}}
\newlabel{exercise09/exercise09-Sch}{{1.29}{19}{Mixing Length Theory of Convection}{equation.1.9.29}{}}
\newlabel{exercise09/exercise09:equation-bdry}{{1.9.2}{19}{Mixing Length Theory of Convection}{section*.33}{}}
\newlabel{exercise09/exercise09-bdry}{{1.30}{19}{Mixing Length Theory of Convection}{equation.1.9.30}{}}
\@writefile{toc}{\contentsline {subsection}{\numberline {1.9.3}Task}{20}{subsection.1.9.3}}
\newlabel{exercise09/exercise09:task}{{1.9.3}{20}{Task}{subsection.1.9.3}{}}
\newlabel{exercise09/exercise09:id2}{{1.9.3}{20}{Task}{subsection.1.9.3}{}}
\newlabel{exercise09/exercise09:equation-delta}{{2}{20}{Task}{section*.34}{}}
\newlabel{exercise09/exercise09-delta}{{1.31}{20}{Task}{equation.1.9.31}{}}
\@writefile{toc}{\contentsline {section}{\numberline {1.10}Exercise 10: Opacity of Stellar Material}{21}{section.1.10}}
\newlabel{exercise10/exercise10:exercise10}{{1.10}{21}{Exercise 10: Opacity of Stellar Material}{section.1.10}{}}
\newlabel{exercise10/exercise10::doc}{{1.10}{21}{Exercise 10: Opacity of Stellar Material}{section.1.10}{}}
\newlabel{exercise10/exercise10:exercise-10-opacity-of-stellar-material}{{1.10}{21}{Exercise 10: Opacity of Stellar Material}{section.1.10}{}}
\@writefile{toc}{\contentsline {subsection}{\numberline {1.10.1}Introduction}{21}{subsection.1.10.1}}
\newlabel{exercise10/exercise10:introduction}{{1.10.1}{21}{Introduction}{subsection.1.10.1}{}}
\newlabel{exercise10/exercise10:id1}{{1.10.1}{21}{Introduction}{subsection.1.10.1}{}}
\newlabel{exercise10/exercise10:equation-k_es}{{1.10.1}{21}{Introduction}{section*.35}{}}
\newlabel{exercise10/exercise10-k_es}{{1.32}{21}{Introduction}{equation.1.10.32}{}}
\newlabel{exercise10/exercise10:equation-k_bf}{{1.10.1}{21}{Introduction}{section*.36}{}}
\newlabel{exercise10/exercise10-k_bf}{{1.33}{21}{Introduction}{equation.1.10.33}{}}
\newlabel{exercise10/exercise10:equation-k_H}{{1.10.1}{22}{Introduction}{section*.37}{}}
\newlabel{exercise10/exercise10-k_H}{{1.34}{22}{Introduction}{equation.1.10.34}{}}
\newlabel{exercise10/exercise10:equation-k_ff}{{1.10.1}{22}{Introduction}{section*.38}{}}
\newlabel{exercise10/exercise10-k_ff}{{1.35}{22}{Introduction}{equation.1.10.35}{}}
\@writefile{toc}{\contentsline {subsection}{\numberline {1.10.2}The Rosseland Mean Opacity}{22}{subsection.1.10.2}}
\newlabel{exercise10/exercise10:rosseland}{{1.10.2}{22}{The Rosseland Mean Opacity}{subsection.1.10.2}{}}
\newlabel{exercise10/exercise10:the-rosseland-mean-opacity}{{1.10.2}{22}{The Rosseland Mean Opacity}{subsection.1.10.2}{}}
\newlabel{exercise10/exercise10:equation-k_nu}{{1.10.2}{22}{The Rosseland Mean Opacity}{section*.39}{}}
\newlabel{exercise10/exercise10-k_nu}{{1.36}{22}{The Rosseland Mean Opacity}{equation.1.10.36}{}}
\newlabel{exercise10/exercise10:equation-k_rad}{{1.10.2}{22}{The Rosseland Mean Opacity}{section*.40}{}}
\newlabel{exercise10/exercise10-k_rad}{{1.37}{22}{The Rosseland Mean Opacity}{equation.1.10.37}{}}
\newlabel{exercise10/exercise10:equation-B_nu}{{1.10.2}{22}{The Rosseland Mean Opacity}{section*.41}{}}
\newlabel{exercise10/exercise10-B_nu}{{1.38}{22}{The Rosseland Mean Opacity}{equation.1.10.38}{}}
\@writefile{toc}{\contentsline {subsection}{\numberline {1.10.3}Rosseland Opacity vs. Initial Mass}{23}{subsection.1.10.3}}
\newlabel{exercise10/exercise10:rosseland-opacity-vs-initial-mass}{{1.10.3}{23}{Rosseland Opacity vs. Initial Mass}{subsection.1.10.3}{}}
\newlabel{exercise10/exercise10:kappa-vs-mass}{{1.10.3}{23}{Rosseland Opacity vs. Initial Mass}{subsection.1.10.3}{}}
\newlabel{exercise10/exercise10:equation-Teff}{{1.10.3}{23}{Rosseland Opacity vs. Initial Mass}{section*.42}{}}
\newlabel{exercise10/exercise10-Teff}{{1.39}{23}{Rosseland Opacity vs. Initial Mass}{equation.1.10.39}{}}
\@writefile{toc}{\contentsline {subsection}{\numberline {1.10.4}Remarks}{23}{subsection.1.10.4}}
\newlabel{exercise10/exercise10:remarks}{{1.10.4}{23}{Remarks}{subsection.1.10.4}{}}
\newlabel{exercise10/exercise10:id4}{{1.10.4}{23}{Remarks}{subsection.1.10.4}{}}
\@writefile{toc}{\contentsline {subsection}{\numberline {1.10.5}Tasks}{24}{subsection.1.10.5}}
\newlabel{exercise10/exercise10:tasks}{{1.10.5}{24}{Tasks}{subsection.1.10.5}{}}
\newlabel{exercise10/exercise10:task}{{1.10.5}{24}{Tasks}{subsection.1.10.5}{}}
\@writefile{toc}{\contentsline {chapter}{\numberline {2}Hints:}{27}{chapter.2}}
\@writefile{lof}{\addvspace {10\p@ }}
\@writefile{lot}{\addvspace {10\p@ }}
\newlabel{index:hints}{{2}{27}{Hints:}{chapter.2}{}}
\@writefile{toc}{\contentsline {chapter}{\numberline {3}Indices and tables}{29}{chapter.3}}
\@writefile{lof}{\addvspace {10\p@ }}
\@writefile{lot}{\addvspace {10\p@ }}
\newlabel{index:indices-and-tables}{{3}{29}{Indices and tables}{chapter.3}{}}
